TEMA 1: INTRODUCCIÓN A LA ECONOMETRÍA
…
Usando DataFrames (https://dataframes.juliadata.org/stable/).

Code

# Lectura y descripción de la base de datos
DEM_CARNE = CSV.read("DEM_CARNE.csv", DataFrame)

30×3 DataFrame
 Row │ P        Q        Y
     │ Float64  Float64  Float64
─────┼───────────────────────────
   1 │  10.763   11.632  487.648
   2 │  13.033   12.029  364.877
   3 │   9.244    8.916  541.037
   4 │   4.605   33.908  760.343
   5 │  13.045    4.561  421.746
   6 │   7.706   17.594  578.214
   7 │   7.405   18.842  561.734
   8 │   7.519   11.637  301.47
  ⋮  │    ⋮        ⋮        ⋮
  24 │   4.759   11.342  365.032
  25 │   5.483    2.903  256.125
  26 │   7.89     3.138  184.798
  27 │   8.46    15.315  359.084
  28 │   6.195   22.24   629.378
  29 │   6.743   10.012  306.527
  30 │  11.977    3.982  347.488
                  15 rows omitted
…
