c1-app2a
…
library(tidyquant)
library(scales)
# Descarga de los datos de un activo bursátil desde Yahoo!Finanzas: APPLE
# Para acceder a los datos diarios del precio de las acciones 
# de Apple usamos el comando tq_get de la librería tidyquant.
# Solicitaremos los datos desde el año 2000 hasta la actualidad.
# https://es.finance.yahoo.com/quote/AAPL?p=AAPL&.tsrc=fin-srch
pAAPL <- tq_get("AAPL",
  get = "stock.prices",
  from = "2000-01-01",
  to = "2023-06-28"
)
pAAPL

# A tibble: 5,908 × 8
   symbol date        open  high   low close     volume adjusted
   <chr>  <date>     <dbl> <dbl> <dbl> <dbl>      <dbl>    <dbl>
 1 AAPL   2000-01-03 0.936 1.00  0.908 0.999  535796800    0.849
 2 AAPL   2000-01-04 0.967 0.988 0.903 0.915  512377600    0.778
 3 AAPL   2000-01-05 0.926 0.987 0.920 0.929  778321600    0.789
 4 AAPL   2000-01-06 0.948 0.955 0.848 0.848  767972800    0.721
 5 AAPL   2000-01-07 0.862 0.902 0.853 0.888  460734400    0.755
 6 AAPL   2000-01-10 0.911 0.913 0.846 0.873  505064000    0.742
 7 AAPL   2000-01-11 0.857 0.887 0.808 0.828  441548800    0.704
 8 AAPL   2000-01-12 0.848 0.853 0.772 0.778  976068800    0.662
 9 AAPL   2000-01-13 0.844 0.882 0.826 0.864 1032684800    0.734
10 AAPL   2000-01-14 0.893 0.913 0.887 0.897  390376000    0.762
# ℹ 5,898 more rows
…
Code

# Cálculo de los rendimientos netos diarios (returns):
# rAAPL = pAAPL/pAAPL(-1)-1
rAAPL <- pAAPL |>
  arrange(date) |>
  mutate(ret = adjusted / lag(adjusted) - 1) |>
  select(symbol, date, ret)
rAAPL

# A tibble: 5,908 × 3
   symbol date           ret
   <chr>  <date>       <dbl>
 1 AAPL   2000-01-03 NA     
 2 AAPL   2000-01-04 -0.0843
 3 AAPL   2000-01-05  0.0146
 4 AAPL   2000-01-06 -0.0865
 5 AAPL   2000-01-07  0.0474
 6 AAPL   2000-01-10 -0.0176
 7 AAPL   2000-01-11 -0.0512
 8 AAPL   2000-01-12 -0.0600
 9 AAPL   2000-01-13  0.110 
10 AAPL   2000-01-14  0.0381
# ℹ 5,898 more rows
…
