Econometría - Aplicación 1.1.a (Gestión y representación gráfica de datos): Gramática básica del tidyverse
…
# select
gapminder_selected <- select(gapminder, year, country, pop, gdpPercap)
# filter
gapminder_filtered <- filter(gapminder_selected, year >= 1980)
# mutate
gapminder_mutated <- mutate(gapminder_filtered, GDP = gdpPercap*pop)
# group_by
gapminder_grouped <- group_by(gapminder_mutated, country)
# summarise
gapminder_summarised <- summarise(gapminder_grouped, AVG_GDP = mean(GDP))
# arrange
gapminder_arranged_ascending <- arrange(gapminder_summarised, AVG_GDP)
gapminder_arranged_ascending

# A tibble: 217 × 2
   country                           AVG_GDP
   <chr>                               <dbl>
 1 Kiribati                        99642313.
 2 Tonga                          247764480.
 3 Dominica                       335912659.
 4 Vanuatu                        416627524.
 5 St. Vincent and the Grenadines 477704237.
 6 St. Kitts and Nevis            505233445.
 7 Grenada                        562186456.
 8 Guinea-Bissau                  580471717.
 9 Comoros                        617956234.
10 Solomon Islands                652451970.
# ℹ 207 more rows

gapminder_arranged_descending <- arrange(gapminder_summarised, -AVG_GDP)
gapminder_arranged_descending

# A tibble: 217 × 2
   country        AVG_GDP
   <chr>            <dbl>
 1 United States  1.11e13
 2 China          4.12e12
 3 Japan          4.10e12
 4 Germany        2.48e12
 5 United Kingdom 1.82e12
 6 France         1.79e12
 7 Italy          1.44e12
 8 Brazil         1.03e12
 9 India          9.96e11
10 Canada         9.96e11
# ℹ 207 more rows

# Operador tubería (pipe) del tidyverse: %>%
AVG_GDP <- 
  gapminder %>% 
  select(year, country, pop, gdpPercap) %>% 
  filter(year>=1980) %>% 
  mutate(GDP=gdpPercap*pop) %>% 
  group_by(country) %>% 
  summarise(AVG_GDP=mean(GDP)) %>% 
  arrange(-AVG_GDP)
AVG_GDP

# A tibble: 217 × 2
   country        AVG_GDP
   <chr>            <dbl>
 1 United States  1.11e13
 2 China          4.12e12
 3 Japan          4.10e12
 4 Germany        2.48e12
 5 United Kingdom 1.82e12
 6 France         1.79e12
 7 Italy          1.44e12
 8 Brazil         1.03e12
 9 India          9.96e11
10 Canada         9.96e11
# ℹ 207 more rows
…
# Familia de operaciones join 
# (https://es.r4ds.hadley.nz/13-relational-data.html)
#
# `inner_join(df1, df2)`
# `left_join(df1, df2)`
# `right_join(df1, df2)`
# `full_join(df1, df2)`
# `semi_join(df1, df2)`
# `anti_join(df1, df2)`
#
# Lectura de datos
library(nycflights13)
flights 

# A tibble: 336,776 × 19
    year month   day dep_time sched_dep_time dep_delay arr_time sched_arr_time
   <int> <int> <int>    <int>          <int>     <dbl>    <int>          <int>
 1  2013     1     1      517            515         2      830            819
 2  2013     1     1      533            529         4      850            830
 3  2013     1     1      542            540         2      923            850
 4  2013     1     1      544            545        -1     1004           1022
 5  2013     1     1      554            600        -6      812            837
 6  2013     1     1      554            558        -4      740            728
 7  2013     1     1      555            600        -5      913            854
 8  2013     1     1      557            600        -3      709            723
 9  2013     1     1      557            600        -3      838            846
10  2013     1     1      558            600        -2      753            745
# ℹ 336,766 more rows
# ℹ 11 more variables: arr_delay <dbl>, carrier <chr>, flight <int>,
#   tailnum <chr>, origin <chr>, dest <chr>, air_time <dbl>, distance <dbl>,
#   hour <dbl>, minute <dbl>, time_hour <dttm>

planes

# A tibble: 3,322 × 9
   tailnum  year type              manufacturer model engines seats speed engine
   <chr>   <int> <chr>             <chr>        <chr>   <int> <int> <int> <chr> 
 1 N10156   2004 Fixed wing multi… EMBRAER      EMB-…       2    55    NA Turbo…
 2 N102UW   1998 Fixed wing multi… AIRBUS INDU… A320…       2   182    NA Turbo…
 3 N103US   1999 Fixed wing multi… AIRBUS INDU… A320…       2   182    NA Turbo…
 4 N104UW   1999 Fixed wing multi… AIRBUS INDU… A320…       2   182    NA Turbo…
 5 N10575   2002 Fixed wing multi… EMBRAER      EMB-…       2    55    NA Turbo…
 6 N105UW   1999 Fixed wing multi… AIRBUS INDU… A320…       2   182    NA Turbo…
 7 N107US   1999 Fixed wing multi… AIRBUS INDU… A320…       2   182    NA Turbo…
 8 N108UW   1999 Fixed wing multi… AIRBUS INDU… A320…       2   182    NA Turbo…
 9 N109UW   1999 Fixed wing multi… AIRBUS INDU… A320…       2   182    NA Turbo…
10 N110UW   1999 Fixed wing multi… AIRBUS INDU… A320…       2   182    NA Turbo…
# ℹ 3,312 more rows

# Ejemplo de left_join
left_join(flights, planes) %>%
  select(year, month, day, dep_time, arr_time, 
         carrier, flight, tailnum, type, model)

# A tibble: 336,776 × 10
    year month   day dep_time arr_time carrier flight tailnum type  model
   <int> <int> <int>    <int>    <int> <chr>    <int> <chr>   <chr> <chr>
 1  2013     1     1      517      830 UA        1545 N14228  <NA>  <NA> 
 2  2013     1     1      533      850 UA        1714 N24211  <NA>  <NA> 
 3  2013     1     1      542      923 AA        1141 N619AA  <NA>  <NA> 
 4  2013     1     1      544     1004 B6         725 N804JB  <NA>  <NA> 
 5  2013     1     1      554      812 DL         461 N668DN  <NA>  <NA> 
 6  2013     1     1      554      740 UA        1696 N39463  <NA>  <NA> 
 7  2013     1     1      555      913 B6         507 N516JB  <NA>  <NA> 
 8  2013     1     1      557      709 EV        5708 N829AS  <NA>  <NA> 
 9  2013     1     1      557      838 B6          79 N593JB  <NA>  <NA> 
10  2013     1     1      558      753 AA         301 N3ALAA  <NA>  <NA> 
# ℹ 336,766 more rows

# Para evitar errores o malas asignaciones automáticas (tailnum y year) 
# debe usarse el argumento 'by = '
# Ejemplos de otras operacionesn pueden encontrarse en:
# https://cran.r-project.org/web/packages/dplyr/vignettes/two-table.html
left_join(flights, planes, by = "tailnum") %>%
  select(month, day, dep_time, arr_time, 
         carrier, flight, tailnum, type, model)

# A tibble: 336,776 × 9
   month   day dep_time arr_time carrier flight tailnum type               model
   <int> <int>    <int>    <int> <chr>    <int> <chr>   <chr>              <chr>
 1     1     1      517      830 UA        1545 N14228  Fixed wing multi … 737-…
 2     1     1      533      850 UA        1714 N24211  Fixed wing multi … 737-…
 3     1     1      542      923 AA        1141 N619AA  Fixed wing multi … 757-…
 4     1     1      544     1004 B6         725 N804JB  Fixed wing multi … A320…
 5     1     1      554      812 DL         461 N668DN  Fixed wing multi … 757-…
 6     1     1      554      740 UA        1696 N39463  Fixed wing multi … 737-…
 7     1     1      555      913 B6         507 N516JB  Fixed wing multi … A320…
 8     1     1      557      709 EV        5708 N829AS  Fixed wing multi … CL-6…
 9     1     1      557      838 B6          79 N593JB  Fixed wing multi … A320…
10     1     1      558      753 AA         301 N3ALAA  <NA>               <NA> 
# ℹ 336,766 more rows
…
