Econometría - Aplicación 3.10 (Información muestral - Multicolinealidad): Análisis de la rentabilidad empresarial
…
PCA_X %>% tidy(matrix = "rotation")

# A tibble: 121 × 3
   column     PC   value
   <chr>   <dbl>   <dbl>
 1 log.VT.     1  0.272 
 2 log.VT.     2  0.198 
 3 log.VT.     3  0.414 
 4 log.VT.     4  0.273 
 5 log.VT.     5 -0.0323
 6 log.VT.     6  0.177 
 7 log.VT.     7  0.756 
 8 log.VT.     8  0.154 
 9 log.VT.     9 -0.0694
10 log.VT.    10  0.0828
# ℹ 111 more rows
…
